<?xml version="1.0" encoding="UTF-8"?>
<svg height="16px" viewBox="0 0 16 16" width="16px" xmlns="http://www.w3.org/2000/svg">
    <path d="m 7 0 v 8 h -7 v 8 h 8 v -7 h 8 v -1 h -8 v -8 z m -2.730469 1.6875 c -1.441406 0 -2.355469 0.863281 -2.355469 2.132812 c 0 1.222657 0.851563 2.039063 2.125 2.039063 c 0.644532 0 1.191407 -0.191406 1.648438 -0.578125 v -1.878906 h -1.824219 v 0.847656 h 0.859375 v 0.613281 c -0.140625 0.078125 -0.335937 0.121094 -0.558594 0.121094 c -0.734374 0 -1.1875 -0.472656 -1.1875 -1.246094 c 0 -0.753906 0.4375 -1.15625 1.261719 -1.15625 c 0.34375 0 0.75 0.0625 1.019531 0.15625 l 0.277344 -0.796875 c -0.34375 -0.160156 -0.804687 -0.253906 -1.265625 -0.253906 z m 5.867188 0.058594 v 4.054687 h 0.957031 v -2.660156 l 1.683594 2.660156 h 1.136718 v -4.054687 h -0.972656 l -0.011718 2.644531 l -1.636719 -2.644531 z m 0 0"/>
</svg>
